{
  "abortStatement": {
    "messages": [
      {
        "content": "Sorry, I could not understand. Goodbye.",
        "contentType": "PlainText"
      }
    ],
    "responseCard": null
  },
  "checksum": "0d8aea05-b686-4312-b84e-dfc9e2bb8392",
  "childDirected": false,
  "clarificationPrompt": {
    "maxAttempts": 5,
    "messages": [
      {
        "content": "Sorry, can you please repeat that?",
        "contentType": "PlainText"
      }
    ],
    "responseCard": null
  },
  "createdDate": "2017-06-14T14:18:22.766Z",
  "dependencies": {
    "intents": [
      {
        "checksum": "1fea22f4-43c0-409c-95c7-949a46d15cb5",
        "createdDate": "2017-07-06T13:33:55.063Z",
        "description": null,
        "fulfillmentActivity": {
          "codeHook": {
            "messageVersion": "1.0",
            "uri": "arn:aws:lambda:us-east-1:875133644673:function:jenkbot_two"
          },
          "type": "CodeHook"
        },
        "lastUpdatedDate": "2017-07-06T13:33:55.063Z",
        "name": "AskEnv",
        "parentIntentSignature": null,
        "sampleUtterances": [
          "How is the environment",
          "Is the environment good now",
          "Is the environment healthy",
          "What is the status of the environment"
        ],
        "slots": [
        ],
        "version": "1"
      },
      {
        "checksum": "fb915dcc-8c6a-4903-82ca-152f566ce6b0",
        "confirmationPrompt": {
          "maxAttempts": 3,
          "messages": [
            {
              "content": "Are you looking at {CheckKey}?",
              "contentType": "PlainText"
            }
          ],
          "responseCard": null
        },
        "createdDate": "2017-06-16T13:52:00.563Z",
        "description": null,
        "dialogCodeHook": {
          "messageVersion": "1.0",
          "uri": "arn:aws:lambda:us-east-1:875133644673:function:jenkbot_init"
        },
        "fulfillmentActivity": {
          "codeHook": {
            "messageVersion": "1.0",
            "uri": "arn:aws:lambda:us-east-1:875133644673:function:jenkbot_two"
          },
          "type": "CodeHook"
        },
        "lastUpdatedDate": "2017-06-16T13:52:00.563Z",
        "name": "QueryAllStatus",
        "parentIntentSignature": null,
        "rejectionStatement": {
          "messages": [
            {
              "content": "Ok, I will clear everything.",
              "contentType": "PlainText"
            }
          ],
          "responseCard": null
        },
        "sampleUtterances": [
          "Are there any {CheckKey} jobs",
          "Check {CheckKey} jobs",
          "How many {CheckKey} jobs are there"
        ],
        "slots": [
          {
            "description": null,
            "name": "CheckKey",
            "priority": 1,
            "responseCard": null,
            "sampleUtterances": [
            ],
            "slotConstraint": "Required",
            "slotType": "CheckKey",
            "slotTypeVersion": "2",
            "valueElicitationPrompt": {
              "maxAttempts": 2,
              "messages": [
                {
                  "content": "What status do you want to check?",
                  "contentType": "PlainText"
                }
              ],
              "responseCard": null
            }
          }
        ],
        "version": "8"
      },
      {
        "checksum": "a49b1824-3539-44b9-babc-be88ee68e751",
        "confirmationPrompt": {
          "maxAttempts": 3,
          "messages": [
            {
              "content": "Are you checking build: {BuildCode} of {JobName}?",
              "contentType": "PlainText"
            }
          ],
          "responseCard": null
        },
        "createdDate": "2017-06-19T19:44:44.173Z",
        "description": null,
        "dialogCodeHook": {
          "messageVersion": "1.0",
          "uri": "arn:aws:lambda:us-east-1:875133644673:function:jenkbot_init"
        },
        "fulfillmentActivity": {
          "codeHook": {
            "messageVersion": "1.0",
            "uri": "arn:aws:lambda:us-east-1:875133644673:function:jenkbot_two"
          },
          "type": "CodeHook"
        },
        "lastUpdatedDate": "2017-06-19T19:44:44.173Z",
        "name": "QueryBuild",
        "parentIntentSignature": null,
        "rejectionStatement": {
          "messages": [
            {
              "content": "Ok, canceled. ",
              "contentType": "PlainText"
            }
          ],
          "responseCard": null
        },
        "sampleUtterances": [
          "Who {BuildQueryKey} build number {BuildCode} of {JobName}",
          "Who {BuildQueryKey} it",
          "Who {BuildQueryKey} the {BuildCode}",
          "Who {BuildQueryKey} the {BuildCode} of {JobName}",
          "Who is the {BuildQueryKey}",
          "Who is the {BuildQueryKey} of build number {BuildCode} of {JobName}",
          "Who is the {BuildQueryKey} of the {BuildCode} of {JobName}"
        ],
        "slots": [
          {
            "description": null,
            "name": "BuildCode",
            "priority": 3,
            "responseCard": null,
            "sampleUtterances": [
            ],
            "slotConstraint": "Required",
            "slotType": "BuildCode",
            "slotTypeVersion": "3",
            "valueElicitationPrompt": {
              "maxAttempts": 2,
              "messages": [
                {
                  "content": "Which build ?",
                  "contentType": "PlainText"
                }
              ],
              "responseCard": null
            }
          },
          {
            "description": null,
            "name": "JobName",
            "priority": 1,
            "responseCard": null,
            "sampleUtterances": [
            ],
            "slotConstraint": "Optional",
            "slotType": "JobName",
            "slotTypeVersion": "4",
            "valueElicitationPrompt": {
              "maxAttempts": 2,
              "messages": [
                {
                  "content": "Which job do you want to check?",
                  "contentType": "PlainText"
                }
              ],
              "responseCard": null
            }
          },
          {
            "description": null,
            "name": "BuildQueryKey",
            "priority": 4,
            "responseCard": null,
            "sampleUtterances": [
            ],
            "slotConstraint": "Required",
            "slotType": "BuildQueryKey",
            "slotTypeVersion": "1",
            "valueElicitationPrompt": {
              "maxAttempts": 2,
              "messages": [
                {
                  "content": "What do you want to know about the build?",
                  "contentType": "PlainText"
                }
              ],
              "responseCard": null
            }
          }
        ],
        "version": "16"
      },
      {
        "checksum": "73739141-5a0f-4c14-8f72-4e3c2ad4c61c",
        "confirmationPrompt": {
          "maxAttempts": 3,
          "messages": [
            {
              "content": "Repeat command :{DashQueryKey} {DashStatusKey} jobs in {DashboardName}. Is that right?",
              "contentType": "PlainText"
            }
          ],
          "responseCard": null
        },
        "createdDate": "2017-06-16T19:54:34.081Z",
        "description": null,
        "dialogCodeHook": {
          "messageVersion": "1.0",
          "uri": "arn:aws:lambda:us-east-1:875133644673:function:jenkbot_init"
        },
        "fulfillmentActivity": {
          "codeHook": {
            "messageVersion": "1.0",
            "uri": "arn:aws:lambda:us-east-1:875133644673:function:jenkbot_two"
          },
          "type": "CodeHook"
        },
        "lastUpdatedDate": "2017-06-16T19:54:34.081Z",
        "name": "QueryDashBoard",
        "parentIntentSignature": null,
        "rejectionStatement": {
          "messages": [
            {
              "content": "ok, canceled.",
              "contentType": "PlainText"
            }
          ],
          "responseCard": null
        },
        "sampleUtterances": [
          "{DashQueryKey} {DashStatusKey} jobs",
          "{DashQueryKey} {DashStatusKey} jobs in {DashboardName}"
        ],
        "slots": [
          {
            "description": null,
            "name": "DashboardName",
            "priority": 1,
            "responseCard": null,
            "sampleUtterances": [
            ],
            "slotConstraint": "Optional",
            "slotType": "DashboardName",
            "slotTypeVersion": "2",
            "valueElicitationPrompt": {
              "maxAttempts": 2,
              "messages": [
                {
                  "content": "Which dashboard?",
                  "contentType": "PlainText"
                }
              ],
              "responseCard": null
            }
          },
          {
            "description": null,
            "name": "DashStatusKey",
            "priority": 3,
            "responseCard": null,
            "sampleUtterances": [
            ],
            "slotConstraint": "Required",
            "slotType": "DashStatusKey",
            "slotTypeVersion": "1",
            "valueElicitationPrompt": {
              "maxAttempts": 2,
              "messages": [
                {
                  "content": "What kind of build status you want to specify?",
                  "contentType": "PlainText"
                }
              ],
              "responseCard": null
            }
          },
          {
            "description": null,
            "name": "DashQueryKey",
            "priority": 2,
            "responseCard": null,
            "sampleUtterances": [
            ],
            "slotConstraint": "Required",
            "slotType": "DashQueryKey",
            "slotTypeVersion": "1",
            "valueElicitationPrompt": {
              "maxAttempts": 2,
              "messages": [
                {
                  "content": "Input your command",
                  "contentType": "PlainText"
                }
              ],
              "responseCard": null
            }
          }
        ],
        "version": "13"
      },
      {
        "checksum": "4cccee06-6367-4fe4-bfc3-4e6f5fa44a5a",
        "confirmationPrompt": {
          "maxAttempts": 3,
          "messages": [
            {
              "content": "Are you checking the {CheckKey} of {JobName} ?",
              "contentType": "PlainText"
            }
          ],
          "responseCard": null
        },
        "createdDate": "2017-06-19T20:19:47.035Z",
        "description": null,
        "dialogCodeHook": {
          "messageVersion": "1.0",
          "uri": "arn:aws:lambda:us-east-1:875133644673:function:jenkbot_init"
        },
        "fulfillmentActivity": {
          "codeHook": {
            "messageVersion": "1.0",
            "uri": "arn:aws:lambda:us-east-1:875133644673:function:jenkbot_two"
          },
          "type": "CodeHook"
        },
        "lastUpdatedDate": "2017-06-19T20:19:47.035Z",
        "name": "QueryJob",
        "parentIntentSignature": null,
        "rejectionStatement": {
          "messages": [
            {
              "content": "Ok, It will be cancelled.",
              "contentType": "PlainText"
            }
          ],
          "responseCard": null
        },
        "sampleUtterances": [
          "I want to know the {CheckKey} of {JobName}",
          "Tell me the {CheckKey} of {JobName}",
          "What is the {CheckKey} of {JobName}",
          "What is the {CheckKey} of job number {JobName}"
        ],
        "slots": [
          {
            "description": null,
            "name": "CheckKey",
            "priority": 1,
            "responseCard": null,
            "sampleUtterances": [
            ],
            "slotConstraint": "Required",
            "slotType": "CheckKey",
            "slotTypeVersion": "2",
            "valueElicitationPrompt": {
              "maxAttempts": 2,
              "messages": [
                {
                  "content": "What status do you want to check ?",
                  "contentType": "PlainText"
                }
              ],
              "responseCard": null
            }
          },
          {
            "description": null,
            "name": "JobName",
            "priority": 2,
            "responseCard": null,
            "sampleUtterances": [
            ],
            "slotConstraint": "Optional",
            "slotType": "JobName",
            "slotTypeVersion": "4",
            "valueElicitationPrompt": {
              "maxAttempts": 2,
              "messages": [
                {
                  "content": "Which job do you want to check ?",
                  "contentType": "PlainText"
                }
              ],
              "responseCard": null
            }
          }
        ],
        "version": "13"
      }
    ],
    "slotTypes": [
      {
        "checksum": null,
        "createdDate": "2017-06-13T14:50:06.279Z",
        "description": "Which build key to inspect",
        "enumerationValues": [
          {
            "value": "claimed"
          },
          {
            "value": "executed"
          },
          {
            "value": "executor"
          },
          {
            "value": "triggered"
          }
        ],
        "lastUpdatedDate": "2017-06-13T14:50:06.279Z",
        "name": "BuildQueryKey",
        "version": "1"
      },
      {
        "checksum": null,
        "createdDate": "2017-06-19T19:44:39.607Z",
        "description": "Valid job names",
        "enumerationValues": [
          {
            "value": "__promotion_acceptance_workflow_ci_Alpha"
          },
          {
            "value": "__regression_workflow_ci_Alpha"
          },
          {
            "value": "1"
          },
          {
            "value": "8"
          },
          {
            "value": "integration_ALPINE_TDM_parallel_run_regression"
          },
          {
            "value": "living_documentation_generation_ci"
          },
          {
            "value": "promote_integration_to_demo_for_all_apps"
          },
          {
            "value": "Teams/DSL/Environments/dsl/3_TEST/__regression_workflow_dsl_Alph"
          }
        ],
        "lastUpdatedDate": "2017-06-19T19:44:39.607Z",
        "name": "JobName",
        "version": "4"
      },
      {
        "checksum": null,
        "createdDate": "2017-06-16T13:51:58.144Z",
        "description": "Available options for checking",
        "enumerationValues": [
          {
            "value": "aborted"
          },
          {
            "value": "blue"
          },
          {
            "value": "failed"
          },
          {
            "value": "last build number"
          },
          {
            "value": "last build time"
          },
          {
            "value": "last successful build number"
          },
          {
            "value": "last successful build time"
          },
          {
            "value": "red"
          }
        ],
        "lastUpdatedDate": "2017-06-16T13:51:58.144Z",
        "name": "CheckKey",
        "version": "2"
      },
      {
        "checksum": null,
        "createdDate": "2017-06-15T19:18:55.618Z",
        "description": "defined status to inspect",
        "enumerationValues": [
          {
            "value": "failed"
          },
          {
            "value": "successful"
          }
        ],
        "lastUpdatedDate": "2017-06-15T19:18:55.618Z",
        "name": "DashStatusKey",
        "version": "1"
      },
      {
        "checksum": null,
        "createdDate": "2017-06-15T19:14:36.271Z",
        "description": "key to indicate the inspection",
        "enumerationValues": [
          {
            "value": "how many"
          },
          {
            "value": "list"
          },
          {
            "value": "which"
          }
        ],
        "lastUpdatedDate": "2017-06-15T19:14:36.271Z",
        "name": "DashQueryKey",
        "version": "1"
      },
      {
        "checksum": null,
        "createdDate": "2017-06-14T14:03:01.012Z",
        "description": "non-numeric and numeric indication of which build to check",
        "enumerationValues": [
          {
            "value": "123"
          },
          {
            "value": "158"
          },
          {
            "value": "last build"
          },
          {
            "value": "last failed build"
          },
          {
            "value": "last successful build"
          }
        ],
        "lastUpdatedDate": "2017-06-14T14:03:01.012Z",
        "name": "BuildCode",
        "version": "3"
      },
      {
        "checksum": null,
        "createdDate": "2017-06-16T19:54:33.259Z",
        "description": "list of dashboard names in sever",
        "enumerationValues": [
          {
            "value": "All"
          },
          {
            "value": "dsl"
          },
          {
            "value": "DSL Dashboard"
          },
          {
            "value": "engine"
          },
          {
            "value": "Engine Dashboard"
          },
          {
            "value": "integration"
          },
          {
            "value": "Integration Dashboard"
          }
        ],
        "lastUpdatedDate": "2017-06-16T19:54:33.259Z",
        "name": "DashboardName",
        "version": "2"
      }
    ]
  },
  "description": null,
  "failureReason": null,
  "idleSessionTTLInSeconds": 300,
  "intents": [
    {
      "intentName": "AskEnv",
      "intentVersion": "1"
    },
    {
      "intentName": "QueryAllStatus",
      "intentVersion": "8"
    },
    {
      "intentName": "QueryBuild",
      "intentVersion": "16"
    },
    {
      "intentName": "QueryDashBoard",
      "intentVersion": "13"
    },
    {
      "intentName": "QueryJob",
      "intentVersion": "13"
    }
  ],
  "lastUpdatedDate": "2017-07-06T13:34:18.225Z",
  "locale": "en-US",
  "name": "jenkbottwo",
  "status": "READY",
  "version": "$LATEST",
  "voiceId": "Justin"
}